lab6/test_run_dir/SevenSegCountSpec1874744758/CountSevenSeg.vcd
$date
2021-03-11T15:27+0000
$end
$version
0.2
$end
$comment

$end
$timescale 1ns  $end
$scope module CountSevenSeg $end
 $var wire 33 # _T $end
 $var wire 1 ( tick $end
 $var wire 4 ) lowFrequCntReg $end
 $var wire 4 * _GEN_1 $end
 $var wire 32 , tickCounterReg $end
 $var wire 1 - clock $end
 $var wire 4 3 io_an $end
 $var wire 32 5 _GEN_0 $end
 $var wire 1 7 dec $end
 $var wire 1 9 reset $end
 $var wire 7 < io_seg $end
  $scope module dec $end
   $var wire 7 ! _GEN_5 $end
   $var wire 7 " _GEN_8 $end
   $var wire 7 $ _GEN_12 $end
   $var wire 1 % _T $end
   $var wire 7 & _GEN_1 $end
   $var wire 7 ' _GEN_4 $end
   $var wire 7 + _GEN_7 $end
   $var wire 7 . _GEN_11 $end
   $var wire 7 / _GEN_14 $end
   $var wire 7 0 _GEN_6 $end
   $var wire 7 1 _GEN_9 $end
   $var wire 7 2 _GEN_0 $end
   $var wire 7 4 _GEN_3 $end
   $var wire 7 6 _GEN_13 $end
   $var wire 7 8 io_out $end
   $var wire 4 : io_in $end
   $var wire 7 ; _GEN_2 $end
   $var wire 7 = _GEN_10 $end
  $upscope $end
$upscope $end
$enddefinitions $end
$dumpvars
0%
b000000000000000000000000000000000 #
b0000000 .
b0000000 /
b0000 )
b0000000 0
07
b0000000 +
b0000 :
09
b0000 3
b0000000 $
b0000000 ;
b0000000 &
b00000000000000000000000000000000 5
b0000000 <
b0000000 '
b0000000 =
0-
b0000000 6
b0000000 !
b0000000 "
b0000000 8
0(
b0000 *
b0000000 1
b0000000 2
b00000000000000000000000000000000 ,
b0000000 4
$end
#0
b1110 3
b0111111 <
1%
b0111111 8
b000000000000000000000000000000001 #
b00000000000000000000000000000001 5
19
#1
1-
#6
0-
#11
1-
#16
0-
#21
1-
#26
0-
#31
1-
#36
0-
#41
1-
#46
0-
09
#51
1-
b000000000000000000000000000000010 #
b00000000000000000000000000000010 5
b00000000000000000000000000000001 ,
#56
0-
#61
1-
b000000000000000000000000000000011 #
b00000000000000000000000000000011 5
b00000000000000000000000000000010 ,
#66
0-
#71
1-
b000000000000000000000000000000100 #
b00000000000000000000000000000100 5
b00000000000000000000000000000011 ,
#76
0-
#81
1-
b000000000000000000000000000000101 #
b00000000000000000000000000000101 5
b00000000000000000000000000000100 ,
#86
0-
#91
1-
b000000000000000000000000000000110 #
b00000000000000000000000000000110 5
b00000000000000000000000000000101 ,
#96
0-
#101
1-
b000000000000000000000000000000111 #
b00000000000000000000000000000111 5
b00000000000000000000000000000110 ,
#106
0-
#111
1-
b000000000000000000000000000001000 #
b00000000000000000000000000001000 5
b00000000000000000000000000000111 ,
#116
0-
#121
1-
b000000000000000000000000000001001 #
b00000000000000000000000000001001 5
b00000000000000000000000000001000 ,
#126
0-
#131
1-
b000000000000000000000000000001010 #
b00000000000000000000000000001010 5
b00000000000000000000000000001001 ,
#136
0-
#141
1-
b000000000000000000000000000001011 #
b00000000000000000000000000001011 5
b00000000000000000000000000001010 ,
#146
0-
#151
1-
b000000000000000000000000000001100 #
b00000000000000000000000000001100 5
b00000000000000000000000000001011 ,
#156
0-
#161
1-
b000000000000000000000000000001101 #
b00000000000000000000000000001101 5
b00000000000000000000000000001100 ,
#166
0-
#171
1-
b000000000000000000000000000001110 #
b00000000000000000000000000001110 5
b00000000000000000000000000001101 ,
#176
0-
#181
1-
b000000000000000000000000000001111 #
b00000000000000000000000000001111 5
b00000000000000000000000000001110 ,
#186
0-
#191
1-
b000000000000000000000000000010000 #
b00000000000000000000000000010000 5
b00000000000000000000000000001111 ,
#196
0-
#201
1-
b000000000000000000000000000010001 #
b00000000000000000000000000010001 5
b00000000000000000000000000010000 ,
#206
0-
#211
1-
b000000000000000000000000000010010 #
b00000000000000000000000000010010 5
b00000000000000000000000000010001 ,
#216
0-
#221
1-
b000000000000000000000000000010011 #
b00000000000000000000000000010011 5
b00000000000000000000000000010010 ,
#226
0-
#231
1-
b000000000000000000000000000010100 #
b00000000000000000000000000010100 5
b00000000000000000000000000010011 ,
#236
0-
#241
1-
b000000000000000000000000000010101 #
b00000000000000000000000000010101 5
b00000000000000000000000000010100 ,
#246
0-
#251
1-
b000000000000000000000000000010110 #
b00000000000000000000000000010110 5
b00000000000000000000000000010101 ,
#256
0-
#261
1-
b000000000000000000000000000010111 #
b00000000000000000000000000010111 5
b00000000000000000000000000010110 ,
#266
0-
#271
1-
b000000000000000000000000000011000 #
b00000000000000000000000000011000 5
b00000000000000000000000000010111 ,
#276
0-
#281
1-
b000000000000000000000000000011001 #
b00000000000000000000000000011001 5
b00000000000000000000000000011000 ,
#286
0-
#291
1-
b000000000000000000000000000011010 #
b00000000000000000000000000011010 5
b00000000000000000000000000011001 ,
#296
0-
#301
1-
b000000000000000000000000000011011 #
b00000000000000000000000000011011 5
b00000000000000000000000000011010 ,
#306
0-
#311
1-
b000000000000000000000000000011100 #
b00000000000000000000000000011100 5
b00000000000000000000000000011011 ,
#316
0-
#321
1-
b000000000000000000000000000011101 #
b00000000000000000000000000011101 5
b00000000000000000000000000011100 ,
#326
0-
#331
1-
b000000000000000000000000000011110 #
b00000000000000000000000000011110 5
b00000000000000000000000000011101 ,
#336
0-
#341
1-
b000000000000000000000000000011111 #
b00000000000000000000000000011111 5
b00000000000000000000000000011110 ,
#346
0-
#351
1-
b000000000000000000000000000100000 #
b00000000000000000000000000100000 5
b00000000000000000000000000011111 ,
#356
0-
#361
1-
b000000000000000000000000000100001 #
b00000000000000000000000000100001 5
b00000000000000000000000000100000 ,
#366
0-
#371
1-
b000000000000000000000000000100010 #
b00000000000000000000000000100010 5
b00000000000000000000000000100001 ,
#376
0-
#381
1-
b000000000000000000000000000100011 #
b00000000000000000000000000100011 5
b00000000000000000000000000100010 ,
#386
0-
#391
1-
b000000000000000000000000000100100 #
b00000000000000000000000000100100 5
b00000000000000000000000000100011 ,
#396
0-
#401
1-
b000000000000000000000000000100101 #
b00000000000000000000000000100101 5
b00000000000000000000000000100100 ,
#406
0-
#411
1-
b000000000000000000000000000100110 #
b00000000000000000000000000100110 5
b00000000000000000000000000100101 ,
#416
0-
#421
1-
b000000000000000000000000000100111 #
b00000000000000000000000000100111 5
b00000000000000000000000000100110 ,
#426
0-
#431
1-
b000000000000000000000000000101000 #
b00000000000000000000000000101000 5
b00000000000000000000000000100111 ,
#436
0-
#441
1-
b000000000000000000000000000101001 #
b00000000000000000000000000101001 5
b00000000000000000000000000101000 ,
#446
0-
#451
1-
b000000000000000000000000000101010 #
b00000000000000000000000000101010 5
b00000000000000000000000000101001 ,
#456
0-
#461
1-
b000000000000000000000000000101011 #
b00000000000000000000000000101011 5
b00000000000000000000000000101010 ,
#466
0-
#471
1-
b000000000000000000000000000101100 #
b00000000000000000000000000101100 5
b00000000000000000000000000101011 ,
#476
0-
#481
1-
b000000000000000000000000000101101 #
b00000000000000000000000000101101 5
b00000000000000000000000000101100 ,
#486
0-
#491
1-
b000000000000000000000000000101110 #
b00000000000000000000000000101110 5
b00000000000000000000000000101101 ,
#496
0-
#501
1-
b000000000000000000000000000101111 #
b00000000000000000000000000101111 5
b00000000000000000000000000101110 ,
#506
0-
#511
1-
b000000000000000000000000000110000 #
b00000000000000000000000000110000 5
b00000000000000000000000000101111 ,
#516
0-
#521
1-
b000000000000000000000000000110001 #
b00000000000000000000000000110001 5
b00000000000000000000000000110000 ,
#526
0-
#531
1-
b000000000000000000000000000110010 #
b00000000000000000000000000110010 5
b00000000000000000000000000110001 ,
#536
0-
#541
1-
b000000000000000000000000000110011 #
b00000000000000000000000000110011 5
b00000000000000000000000000110010 ,
#546
0-
#551
1-
b000000000000000000000000000110100 #
b00000000000000000000000000110100 5
b00000000000000000000000000110011 ,
#556
0-
#561
1-
b000000000000000000000000000110101 #
b00000000000000000000000000110101 5
b00000000000000000000000000110100 ,
#566
0-
#571
1-
b000000000000000000000000000110110 #
b00000000000000000000000000110110 5
b00000000000000000000000000110101 ,
#576
0-
#581
1-
b000000000000000000000000000110111 #
b00000000000000000000000000110111 5
b00000000000000000000000000110110 ,
#586
0-
#591
1-
b000000000000000000000000000111000 #
b00000000000000000000000000111000 5
b00000000000000000000000000110111 ,
#596
0-
#601
1-
b000000000000000000000000000111001 #
b00000000000000000000000000111001 5
b00000000000000000000000000111000 ,
#606
0-
#611
1-
b000000000000000000000000000111010 #
b00000000000000000000000000111010 5
b00000000000000000000000000111001 ,
#616
0-
#621
1-
b000000000000000000000000000111011 #
b00000000000000000000000000111011 5
b00000000000000000000000000111010 ,
#626
0-
#631
1-
b000000000000000000000000000111100 #
b00000000000000000000000000111100 5
b00000000000000000000000000111011 ,
#636
0-
#641
1-
b000000000000000000000000000111101 #
b00000000000000000000000000111101 5
b00000000000000000000000000111100 ,
#646
0-
#651
1-
b000000000000000000000000000111110 #
b00000000000000000000000000111110 5
b00000000000000000000000000111101 ,
#656
0-
#661
1-
b000000000000000000000000000111111 #
b00000000000000000000000000111111 5
b00000000000000000000000000111110 ,
#666
0-
#671
1-
b000000000000000000000000001000000 #
b00000000000000000000000001000000 5
b00000000000000000000000000111111 ,
#676
0-
#681
1-
b000000000000000000000000001000001 #
b00000000000000000000000001000001 5
b00000000000000000000000001000000 ,
#686
0-
#691
1-
b000000000000000000000000001000010 #
b00000000000000000000000001000010 5
b00000000000000000000000001000001 ,
#696
0-
#701
1-
b000000000000000000000000001000011 #
b00000000000000000000000001000011 5
b00000000000000000000000001000010 ,
#706
0-
#711
1-
b000000000000000000000000001000100 #
b00000000000000000000000001000100 5
b00000000000000000000000001000011 ,
#716
0-
#721
1-
b000000000000000000000000001000101 #
b00000000000000000000000001000101 5
b00000000000000000000000001000100 ,
#726
0-
#731
1-
b000000000000000000000000001000110 #
b00000000000000000000000001000110 5
b00000000000000000000000001000101 ,
#736
0-
#741
1-
b000000000000000000000000001000111 #
b00000000000000000000000001000111 5
b00000000000000000000000001000110 ,
#746
0-
#751
1-
b000000000000000000000000001001000 #
b00000000000000000000000001001000 5
b00000000000000000000000001000111 ,
#756
0-
#761
1-
b000000000000000000000000001001001 #
b00000000000000000000000001001001 5
b00000000000000000000000001001000 ,
#766
0-
#771
1-
b000000000000000000000000001001010 #
b00000000000000000000000001001010 5
b00000000000000000000000001001001 ,
#776
0-
#781
1-
b000000000000000000000000001001011 #
b00000000000000000000000001001011 5
b00000000000000000000000001001010 ,
#786
0-
#791
1-
b000000000000000000000000001001100 #
b00000000000000000000000001001100 5
b00000000000000000000000001001011 ,
#796
0-
#801
1-
b000000000000000000000000001001101 #
b00000000000000000000000001001101 5
b00000000000000000000000001001100 ,
#806
0-
#811
1-
b000000000000000000000000001001110 #
b00000000000000000000000001001110 5
b00000000000000000000000001001101 ,
#816
0-
#821
1-
b000000000000000000000000001001111 #
b00000000000000000000000001001111 5
b00000000000000000000000001001110 ,
#826
0-
#831
1-
b000000000000000000000000001010000 #
b00000000000000000000000001010000 5
b00000000000000000000000001001111 ,
#836
0-
#841
1-
b000000000000000000000000001010001 #
b00000000000000000000000001010001 5
b00000000000000000000000001010000 ,
#846
0-
#851
1-
b000000000000000000000000001010010 #
b00000000000000000000000001010010 5
b00000000000000000000000001010001 ,
#856
0-
#861
1-
b000000000000000000000000001010011 #
b00000000000000000000000001010011 5
b00000000000000000000000001010010 ,
#866
0-
#871
1-
b000000000000000000000000001010100 #
b00000000000000000000000001010100 5
b00000000000000000000000001010011 ,
#876
0-
#881
1-
b000000000000000000000000001010101 #
b00000000000000000000000001010101 5
b00000000000000000000000001010100 ,
#886
0-
#891
1-
b000000000000000000000000001010110 #
b00000000000000000000000001010110 5
b00000000000000000000000001010101 ,
#896
0-
#901
1-
b000000000000000000000000001010111 #
b00000000000000000000000001010111 5
b00000000000000000000000001010110 ,
#906
0-
#911
1-
b000000000000000000000000001011000 #
b00000000000000000000000001011000 5
b00000000000000000000000001010111 ,
#916
0-
#921
1-
b000000000000000000000000001011001 #
b00000000000000000000000001011001 5
b00000000000000000000000001011000 ,
#926
0-
#931
1-
b000000000000000000000000001011010 #
b00000000000000000000000001011010 5
b00000000000000000000000001011001 ,
#936
0-
#941
1-
b000000000000000000000000001011011 #
b00000000000000000000000001011011 5
b00000000000000000000000001011010 ,
#946
0-
#951
1-
b000000000000000000000000001011100 #
b00000000000000000000000001011100 5
b00000000000000000000000001011011 ,
#956
0-
#961
1-
b000000000000000000000000001011101 #
b00000000000000000000000001011101 5
b00000000000000000000000001011100 ,
#966
0-
#971
1-
b000000000000000000000000001011110 #
b00000000000000000000000001011110 5
b00000000000000000000000001011101 ,
#976
0-
#981
1-
b000000000000000000000000001011111 #
b00000000000000000000000001011111 5
b00000000000000000000000001011110 ,
#986
0-
#991
1-
b000000000000000000000000001100000 #
b00000000000000000000000001100000 5
b00000000000000000000000001011111 ,
#996
0-
#1001
1-
b000000000000000000000000001100001 #
b00000000000000000000000001100001 5
b00000000000000000000000001100000 ,
#1006
0-
#1011
1-
b000000000000000000000000001100010 #
b00000000000000000000000001100010 5
b00000000000000000000000001100001 ,
#1016
0-
#1021
1-
b000000000000000000000000001100011 #
b00000000000000000000000001100011 5
b00000000000000000000000001100010 ,
#1026
0-
#1031
1-
b000000000000000000000000001100100 #
b00000000000000000000000001100100 5
b00000000000000000000000001100011 ,
#1036
0-
#1041
1-
b000000000000000000000000001100101 #
b00000000000000000000000001100101 5
b00000000000000000000000001100100 ,
