lab8/test_run_dir/DisplaySpec1921602814/Display.vcd
$date
2021-03-25T14:57+0000
$end
$version
0.2
$end
$comment

$end
$timescale 1ns  $end
$scope module Display $end
 $var wire 16 2 io_sw $end
 $var wire 1 \ clock $end
 $var wire 4 g io_an $end
 $var wire 1 z reset $end
 $var wire 1 { dispMux $end
 $var wire 7 "# io_seg $end
  $scope module dispMux $end
   $var wire 4 % select $end
   $var wire 32 & _GEN_0 $end
   $var wire 4 0 _GEN_3 $end
   $var wire 7 4 _GEN_6 $end
   $var wire 1 5 tick $end
   $var wire 7 7 io_seg $end
   $var wire 2 = lowFrequCntReg $end
   $var wire 1 B lys1 $end
   $var wire 4 C _GEN_5 $end
   $var wire 8 D io_sum $end
   $var wire 1 E lys4 $end
   $var wire 32 H tickCounterReg $end
   $var wire 7 R _GEN_2 $end
   $var wire 1 S clock $end
   $var wire 7 Y sevSeg $end
   $var wire 1 [ lys3 $end
   $var wire 8 ` io_price $end
   $var wire 4 b io_an $end
   $var wire 2 k _GEN_1 $end
   $var wire 7 r _GEN_4 $end
   $var wire 1 u reset $end
   $var wire 4 v _GEN_7 $end
   $var wire 1 "" lys2 $end
    $scope module lys2 $end
     $var wire 7 ! _GEN_14 $end
     $var wire 7 $ _GEN_4 $end
     $var wire 7 * _GEN_7 $end
     $var wire 7 + _GEN_11 $end
     $var wire 7 9 _GEN_6 $end
     $var wire 7 < _GEN_9 $end
     $var wire 7 > _GEN_10 $end
     $var wire 7 @ _GEN_0 $end
     $var wire 7 I _GEN_3 $end
     $var wire 7 J _GEN_13 $end
     $var wire 7 P io_out $end
     $var wire 4 U io_in $end
     $var wire 7 ^ _GEN_5 $end
     $var wire 7 e _GEN_8 $end
     $var wire 7 m _GEN_2 $end
     $var wire 7 n _GEN_12 $end
     $var wire 1 ~ _T $end
     $var wire 7 "$ _GEN_1 $end
    $upscope $end
    $scope module lys3 $end
     $var wire 7 " _GEN_10 $end
     $var wire 7 # _GEN_3 $end
     $var wire 7 ' _GEN_13 $end
     $var wire 7 ( _GEN_6 $end
     $var wire 7 . _GEN_9 $end
     $var wire 7 / _GEN_0 $end
     $var wire 4 1 io_in $end
     $var wire 7 ; io_out $end
     $var wire 7 G _GEN_2 $end
     $var wire 7 K _GEN_12 $end
     $var wire 7 L _GEN_5 $end
     $var wire 1 M _T $end
     $var wire 7 Q _GEN_8 $end
     $var wire 7 a _GEN_11 $end
     $var wire 7 f _GEN_7 $end
     $var wire 7 j _GEN_14 $end
     $var wire 7 l _GEN_1 $end
     $var wire 7 t _GEN_4 $end
    $upscope $end
    $scope module lys1 $end
     $var wire 7 ) _GEN_12 $end
     $var wire 7 3 _GEN_4 $end
     $var wire 7 8 _GEN_7 $end
     $var wire 7 ? _GEN_1 $end
     $var wire 7 O _GEN_11 $end
     $var wire 7 V _GEN_14 $end
     $var wire 7 W _GEN_9 $end
     $var wire 7 X _GEN_0 $end
     $var wire 7 Z _GEN_3 $end
     $var wire 7 _ _GEN_6 $end
     $var wire 1 c _T $end
     $var wire 7 d _GEN_13 $end
     $var wire 4 h io_in $end
     $var wire 7 w _GEN_10 $end
     $var wire 7 x _GEN_5 $end
     $var wire 7 y _GEN_8 $end
     $var wire 7 } io_out $end
     $var wire 7 "! _GEN_2 $end
    $upscope $end
    $scope module lys4 $end
     $var wire 7 , _GEN_8 $end
     $var wire 7 - io_out $end
     $var wire 7 6 _GEN_2 $end
     $var wire 7 : _GEN_5 $end
     $var wire 7 A _GEN_11 $end
     $var wire 7 F _GEN_14 $end
     $var wire 7 N _GEN_4 $end
     $var wire 7 T _GEN_7 $end
     $var wire 7 ] _GEN_1 $end
     $var wire 7 i _GEN_10 $end
     $var wire 4 o io_in $end
     $var wire 7 p _GEN_13 $end
     $var wire 7 q _GEN_9 $end
     $var wire 7 s _GEN_3 $end
     $var wire 7 | _GEN_6 $end
     $var wire 1 "% _T $end
     $var wire 7 "& _GEN_12 $end
     $var wire 7 "' _GEN_0 $end
    $upscope $end
  $upscope $end
  $scope module dispMux.lys4 $end
  $upscope $end
  $scope module dispMux.lys1 $end
  $upscope $end
  $scope module dispMux.lys2 $end
  $upscope $end
  $scope module dispMux.lys3 $end
  $upscope $end
$upscope $end
$enddefinitions $end
$dumpvars
b0000000 K
0""
b0000000 .
b0000000 w
b0000000 (
b0000 U
b0000000 y
b0000000 G
b0000000 ?
b0000000 *
b0000000 s
b0000000 ^
b00000000 `
b0000000 A
b0000000 ,
b0000000 V
b0000000 $
b0000000 m
b0000000 X
b0000000 ;
b0000 h
b0000000 "$
b0000000 Z
05
b0000000 R
b0000000 "&
0~
b0000 b
b0000000 q
b0000 0
b0000000 T
b0000000 i
b0000000 7
b0000000 "
0c
0[
0"%
b0000000 9
b0000000 N
0z
b0000000 e
b0000000 P
b0000000 3
b0000 C
b0000000 |
b0000000000000000 2
b0000000 _
b0000000 J
0B
b00000000000000000000000000000000 &
b0000000 -
b0000 o
b0000000 a
b0000000 L
b00 =
b0000000 /
b0000000 x
0S
b0000000 F
b0000000 )
b0000000 r
b00 k
0M
b0000000 ]
b0000000 @
b0000000 +
b0000000 #
b0000000 t
b0000000 W
b00000000 D
b0000000 "#
b0000 g
0{
b0000000 n
b0000000 Y
b0000000 <
b0000000 '
b0000000 p
b0000000 >
b0000000 "'
b0000000 6
b0000000 !
b0000000 j
b0000 1
0E
b0000000 8
b0000000 "!
b0000000 l
0\
b00000000000000000000000000000000 H
b0000000 d
b0000000 O
b0000000 :
b0000000 f
b0000000 Q
b0000 %
b0000000 I
b0000000 4
b0000 v
0u
b0000000 }
$end
#0
1u
b0111111 -
b0111 %
b0111111 4
b0111 C
b0111 v
b1000 g
b0111111 R
b00000000000000000000000000000001 &
b0111111 }
1"%
b0111111 Y
1~
b1000000 7
b1000 b
1M
b0111 0
1c
b0111111 r
1z
b1000000 "#
b0111111 P
b0111111 ;
#1
1S
1\
#6
0S
0\
#11
1S
1\
#16
0S
0\
#21
1S
1\
#26
0S
0\
#31
1S
1\
#36
0S
0\
#41
1S
1\
#46
b0000110 4
b0000110 R
b1011011 J
b0000110 }
0"%
0S
b0001 h
b1001111 K
0~
b1100110 "&
b1111001 7
b1001111 j
0M
0c
b1100110 F
b0011 1
0z
b0001001000110100 2
b1111001 "#
b1100110 A
0u
b00110100 `
b1100110 -
b0000110 Y
b00010010 D
b0100 o
b1001111 '
b1100110 p
0\
b1011011 !
b0000110 r
b0010 U
b0000110 V
b1011011 P
b1001111 ;
#51
b00000000000000000000000000000010 &
1S
b00000000000000000000000000000001 H
1\
#56
0S
0\
#61
b00000000000000000000000000000011 &
1S
b00000000000000000000000000000010 H
1\
#66
0S
0\
#71
b00000000000000000000000000000100 &
1S
b00000000000000000000000000000011 H
1\
#76
0S
0\
#81
b00000000000000000000000000000101 &
1S
b00000000000000000000000000000100 H
1\
#86
0S
0\
#91
b00000000000000000000000000000110 &
1S
b00000000000000000000000000000101 H
1\
#96
0S
0\
#101
b00000000000000000000000000000111 &
1S
b00000000000000000000000000000110 H
1\
#106
0S
0\
#111
b00000000000000000000000000001000 &
1S
b00000000000000000000000000000111 H
1\
#116
0S
0\
#121
b00000000000000000000000000001001 &
1S
b00000000000000000000000000001000 H
1\
#126
0S
0\
#131
b00000000000000000000000000001010 &
1S
b00000000000000000000000000001001 H
1\
#136
0S
0\
#141
b00000000000000000000000000001011 &
1S
b00000000000000000000000000001010 H
1\
#146
0S
0\
#151
b00000000000000000000000000001100 &
1S
b00000000000000000000000000001011 H
1\
#156
0S
0\
#161
b00000000000000000000000000001101 &
1S
b00000000000000000000000000001100 H
1\
#166
0S
0\
#171
b00000000000000000000000000001110 &
1S
b00000000000000000000000000001101 H
1\
#176
0S
0\
#181
b00000000000000000000000000001111 &
1S
b00000000000000000000000000001110 H
1\
#186
0S
0\
#191
b00000000000000000000000000010000 &
1S
b00000000000000000000000000001111 H
1\
#196
0S
0\
#201
b00000000000000000000000000010001 &
1S
b00000000000000000000000000010000 H
1\
#206
0S
0\
#211
b00000000000000000000000000010010 &
1S
b00000000000000000000000000010001 H
1\
#216
0S
0\
#221
b00000000000000000000000000010011 &
1S
b00000000000000000000000000010010 H
1\
#226
0S
0\
#231
b00000000000000000000000000000000 &
15
b01 k
1S
b00000000000000000000000000010011 H
1\
#236
0S
0\
#241
b1011 %
b1011011 4
b1011 C
b1011 v
b0100 g
b1111111 R
b00000000000000000000000000000001 &
05
b1011011 Y
1S
b01 =
b0100100 7
b0100 b
1\
b0001 0
b1011011 r
b00000000000000000000000000000000 H
b0100100 "#
#246
0S
0\
#251
b00000000000000000000000000000010 &
1S
b00000000000000000000000000000001 H
1\
#256
0S
0\
#261
b00000000000000000000000000000011 &
1S
b00000000000000000000000000000010 H
1\
#266
0S
0\
#271
b00000000000000000000000000000100 &
1S
b00000000000000000000000000000011 H
1\
#276
0S
0\
#281
b00000000000000000000000000000101 &
1S
b00000000000000000000000000000100 H
1\
#286
0S
0\
#291
b00000000000000000000000000000110 &
1S
b00000000000000000000000000000101 H
1\
#296
0S
0\
#301
b00000000000000000000000000000111 &
1S
b00000000000000000000000000000110 H
1\
#306
0S
0\
#311
b00000000000000000000000000001000 &
1S
b00000000000000000000000000000111 H
1\
#316
0S
0\
#321
b00000000000000000000000000001001 &
1S
b00000000000000000000000000001000 H
1\
#326
0S
0\
#331
b00000000000000000000000000001010 &
1S
b00000000000000000000000000001001 H
1\
#336
0S
0\
#341
b00000000000000000000000000001011 &
1S
b00000000000000000000000000001010 H
1\
#346
0S
0\
#351
b00000000000000000000000000001100 &
1S
b00000000000000000000000000001011 H
1\
#356
0S
0\
#361
b00000000000000000000000000001101 &
1S
b00000000000000000000000000001100 H
1\
#366
0S
0\
#371
b00000000000000000000000000001110 &
1S
b00000000000000000000000000001101 H
1\
#376
0S
0\
#381
b00000000000000000000000000001111 &
1S
b00000000000000000000000000001110 H
1\
#386
0S
0\
#391
b00000000000000000000000000010000 &
1S
b00000000000000000000000000001111 H
1\
#396
0S
0\
#401
b00000000000000000000000000010001 &
1S
b00000000000000000000000000010000 H
1\
#406
0S
0\
#411
b00000000000000000000000000010010 &
1S
b00000000000000000000000000010001 H
1\
#416
0S
0\
#421
b00000000000000000000000000010011 &
1S
b00000000000000000000000000010010 H
1\
#426
0S
0\
#431
b00000000000000000000000000000000 &
15
b10 k
1S
b00000000000000000000000000010011 H
1\
#436
0S
0\
#441
b1101 %
b1001111 4
b0001 C
b1101 v
b0010 g
b00000000000000000000000000000001 &
05
b1001111 Y
1S
b10 =
b0110000 7
b0010 b
1\
b1111111 r
b00000000000000000000000000000000 H
b0110000 "#
#446
0S
0\
#451
b00000000000000000000000000000010 &
1S
b00000000000000000000000000000001 H
1\
#456
0S
0\
#461
b00000000000000000000000000000011 &
1S
b00000000000000000000000000000010 H
1\
#466
0S
0\
#471
b00000000000000000000000000000100 &
1S
b00000000000000000000000000000011 H
1\
#476
0S
0\
#481
b00000000000000000000000000000101 &
1S
b00000000000000000000000000000100 H
1\
#486
0S
0\
#491
b00000000000000000000000000000110 &
1S
b00000000000000000000000000000101 H
1\
#496
0S
0\
#501
b00000000000000000000000000000111 &
1S
b00000000000000000000000000000110 H
1\
#506
0S
0\
#511
b00000000000000000000000000001000 &
1S
b00000000000000000000000000000111 H
1\
#516
0S
0\
#521
b00000000000000000000000000001001 &
1S
b00000000000000000000000000001000 H
1\
#526
0S
0\
#531
b00000000000000000000000000001010 &
1S
b00000000000000000000000000001001 H
1\
#536
0S
0\
#541
b00000000000000000000000000001011 &
1S
b00000000000000000000000000001010 H
1\
#546
0S
0\
#551
b00000000000000000000000000001100 &
1S
b00000000000000000000000000001011 H
1\
#556
0S
0\
#561
b00000000000000000000000000001101 &
1S
b00000000000000000000000000001100 H
1\
#566
0S
0\
#571
b00000000000000000000000000001110 &
1S
b00000000000000000000000000001101 H
1\
#576
0S
0\
#581
b00000000000000000000000000001111 &
1S
b00000000000000000000000000001110 H
1\
#586
0S
0\
#591
b00000000000000000000000000010000 &
1S
b00000000000000000000000000001111 H
1\
#596
0S
0\
#601
b00000000000000000000000000010001 &
1S
b00000000000000000000000000010000 H
1\
#606
0S
0\
#611
b00000000000000000000000000010010 &
1S
b00000000000000000000000000010001 H
1\
#616
0S
0\
#621
b00000000000000000000000000010011 &
1S
b00000000000000000000000000010010 H
1\
#626
0S
0\
#631
b00000000000000000000000000000000 &
15
b11 k
1S
b00000000000000000000000000010011 H
1\
#636
0S
0\
#641
b1110 %
b1111111 4
b0001 g
b0001 v
b00000000000000000000000000000001 &
05
b1100110 Y
1S
b11 =
b0011001 7
b0001 b
1\
b00000000000000000000000000000000 H
b0011001 "#
#646
0S
0\
#651
b00000000000000000000000000000010 &
1S
b00000000000000000000000000000001 H
1\
#656
0S
0\
#661
b00000000000000000000000000000011 &
1S
b00000000000000000000000000000010 H
1\
#666
0S
0\
#671
b00000000000000000000000000000100 &
1S
b00000000000000000000000000000011 H
1\
#676
0S
0\
#681
b00000000000000000000000000000101 &
1S
b00000000000000000000000000000100 H
1\
#686
0S
0\
#691
b00000000000000000000000000000110 &
1S
b00000000000000000000000000000101 H
1\
#696
0S
0\
#701
b00000000000000000000000000000111 &
1S
b00000000000000000000000000000110 H
1\
#706
0S
0\
#711
b00000000000000000000000000001000 &
1S
b00000000000000000000000000000111 H
1\
#716
0S
0\
#721
b00000000000000000000000000001001 &
1S
b00000000000000000000000000001000 H
1\
#726
0S
0\
#731
b00000000000000000000000000001010 &
1S
b00000000000000000000000000001001 H
1\
#736
0S
0\
#741
b00000000000000000000000000001011 &
1S
b00000000000000000000000000001010 H
1\
#746
0S
0\
#751
b00000000000000000000000000001100 &
1S
b00000000000000000000000000001011 H
1\
#756
0S
0\
#761
b00000000000000000000000000001101 &
1S
b00000000000000000000000000001100 H
1\
#766
0S
0\
#771
b00000000000000000000000000001110 &
1S
b00000000000000000000000000001101 H
1\
#776
0S
0\
#781
b00000000000000000000000000001111 &
1S
b00000000000000000000000000001110 H
1\
#786
0S
0\
#791
b00000000000000000000000000010000 &
1S
b00000000000000000000000000001111 H
1\
#796
0S
0\
#801
b00000000000000000000000000010001 &
1S
b00000000000000000000000000010000 H
1\
#806
0S
0\
#811
b00000000000000000000000000010010 &
1S
b00000000000000000000000000010001 H
1\
#816
0S
0\
#821
b00000000000000000000000000010011 &
1S
b00000000000000000000000000010010 H
1\
#826
0S
0\
#831
b00000000000000000000000000000000 &
15
b00 k
1S
b00000000000000000000000000010011 H
1\
#836
0S
0\
#841
b0111 %
b0000110 4
b0111 C
b0111 v
b1000 g
b0000110 R
b00000000000000000000000000000001 &
05
b0000110 Y
1S
b00 =
b1111001 7
b1000 b
1\
b0111 0
b0000110 r
b00000000000000000000000000000000 H
b1111001 "#
#846
0S
0\
#851
b00000000000000000000000000000010 &
1S
b00000000000000000000000000000001 H
1\
#856
0S
0\
#861
b00000000000000000000000000000011 &
1S
b00000000000000000000000000000010 H
1\
#866
0S
0\
#871
b00000000000000000000000000000100 &
1S
b00000000000000000000000000000011 H
1\
#876
0S
0\
#881
b00000000000000000000000000000101 &
1S
b00000000000000000000000000000100 H
1\
#886
0S
0\
#891
b00000000000000000000000000000110 &
1S
b00000000000000000000000000000101 H
1\
#896
0S
0\
#901
b00000000000000000000000000000111 &
1S
b00000000000000000000000000000110 H
1\
#906
0S
0\
#911
b00000000000000000000000000001000 &
1S
b00000000000000000000000000000111 H
1\
#916
0S
0\
#921
b00000000000000000000000000001001 &
1S
b00000000000000000000000000001000 H
1\
#926
0S
0\
#931
b00000000000000000000000000001010 &
1S
b00000000000000000000000000001001 H
1\
#936
0S
0\
#941
b00000000000000000000000000001011 &
1S
b00000000000000000000000000001010 H
1\
#946
0S
0\
#951
b00000000000000000000000000001100 &
1S
b00000000000000000000000000001011 H
1\
#956
0S
0\
#961
b00000000000000000000000000001101 &
1S
b00000000000000000000000000001100 H
1\
#966
0S
0\
#971
b00000000000000000000000000001110 &
1S
b00000000000000000000000000001101 H
1\
#976
0S
0\
#981
b00000000000000000000000000001111 &
1S
b00000000000000000000000000001110 H
1\
#986
0S
0\
#991
b00000000000000000000000000010000 &
1S
b00000000000000000000000000001111 H
1\
#996
0S
0\
#1001
b00000000000000000000000000010001 &
1S
b00000000000000000000000000010000 H
1\
#1006
0S
0\
#1011
b00000000000000000000000000010010 &
1S
b00000000000000000000000000010001 H
1\
#1016
0S
0\
#1021
b00000000000000000000000000010011 &
1S
b00000000000000000000000000010010 H
1\
#1026
0S
0\
#1031
b00000000000000000000000000000000 &
15
b01 k
1S
b00000000000000000000000000010011 H
1\
#1036
0S
0\
#1041
b1011 %
b1011011 4
b1011 C
b1011 v
b0100 g
b1111111 R
b00000000000000000000000000000001 &
05
b1011011 Y
1S
b01 =
b0100100 7
b0100 b
1\
b0001 0
b1011011 r
b00000000000000000000000000000000 H
b0100100 "#
#1046
0S
0\
#1051
b00000000000000000000000000000010 &
1S
b00000000000000000000000000000001 H
1\
#1056
0S
0\
#1061
b00000000000000000000000000000011 &
1S
b00000000000000000000000000000010 H
1\
#1066
0S
0\
#1071
b00000000000000000000000000000100 &
1S
b00000000000000000000000000000011 H
1\
#1076
0S
0\
#1081
b00000000000000000000000000000101 &
1S
b00000000000000000000000000000100 H
1\
#1086
0S
0\
#1091
b00000000000000000000000000000110 &
1S
b00000000000000000000000000000101 H
1\
#1096
0S
0\
#1101
b00000000000000000000000000000111 &
1S
b00000000000000000000000000000110 H
1\
#1106
0S
0\
#1111
b00000000000000000000000000001000 &
1S
b00000000000000000000000000000111 H
1\
#1116
0S
0\
#1121
b00000000000000000000000000001001 &
1S
b00000000000000000000000000001000 H
1\
#1126
0S
0\
#1131
b00000000000000000000000000001010 &
1S
b00000000000000000000000000001001 H
1\
#1136
0S
0\
#1141
b00000000000000000000000000001011 &
1S
b00000000000000000000000000001010 H
1\
#1146
0S
0\
#1151
b00000000000000000000000000001100 &
1S
b00000000000000000000000000001011 H
1\
#1156
0S
0\
#1161
b00000000000000000000000000001101 &
1S
b00000000000000000000000000001100 H
1\
#1166
0S
0\
#1171
b00000000000000000000000000001110 &
1S
b00000000000000000000000000001101 H
1\
#1176
0S
0\
#1181
b00000000000000000000000000001111 &
1S
b00000000000000000000000000001110 H
1\
#1186
0S
0\
#1191
b00000000000000000000000000010000 &
1S
b00000000000000000000000000001111 H
1\
#1196
0S
0\
#1201
b00000000000000000000000000010001 &
1S
b00000000000000000000000000010000 H
1\
#1206
0S
0\
#1211
b00000000000000000000000000010010 &
1S
b00000000000000000000000000010001 H
1\
#1216
0S
0\
#1221
b00000000000000000000000000010011 &
1S
b00000000000000000000000000010010 H
1\
#1226
0S
0\
#1231
b00000000000000000000000000000000 &
15
b10 k
1S
b00000000000000000000000000010011 H
1\
#1236
0S
0\
#1241
b1101 %
b1001111 4
b0001 C
b1101 v
b0010 g
b00000000000000000000000000000001 &
05
b1001111 Y
1S
b10 =
b0110000 7
b0010 b
1\
b1111111 r
b00000000000000000000000000000000 H
b0110000 "#
#1246
0S
0\
#1251
b00000000000000000000000000000010 &
1S
b00000000000000000000000000000001 H
1\
#1256
0S
0\
#1261
b00000000000000000000000000000011 &
1S
b00000000000000000000000000000010 H
1\
#1266
0S
0\
#1271
b00000000000000000000000000000100 &
1S
b00000000000000000000000000000011 H
1\
#1276
0S
0\
#1281
b00000000000000000000000000000101 &
1S
b00000000000000000000000000000100 H
1\
#1286
0S
0\
#1291
b00000000000000000000000000000110 &
1S
b00000000000000000000000000000101 H
1\
#1296
0S
0\
#1301
b00000000000000000000000000000111 &
1S
b00000000000000000000000000000110 H
1\
#1306
0S
0\
#1311
b00000000000000000000000000001000 &
1S
b00000000000000000000000000000111 H
1\
#1316
0S
0\
#1321
b00000000000000000000000000001001 &
1S
b00000000000000000000000000001000 H
1\
#1326
0S
0\
#1331
b00000000000000000000000000001010 &
1S
b00000000000000000000000000001001 H
1\
#1336
0S
0\
#1341
b00000000000000000000000000001011 &
1S
b00000000000000000000000000001010 H
1\
#1346
0S
0\
#1351
b00000000000000000000000000001100 &
1S
b00000000000000000000000000001011 H
1\
#1356
0S
0\
#1361
b00000000000000000000000000001101 &
1S
b00000000000000000000000000001100 H
1\
#1366
0S
0\
#1371
b00000000000000000000000000001110 &
1S
b00000000000000000000000000001101 H
1\
#1376
0S
0\
#1381
b00000000000000000000000000001111 &
1S
b00000000000000000000000000001110 H
1\
#1386
0S
0\
#1391
b00000000000000000000000000010000 &
1S
b00000000000000000000000000001111 H
1\
#1396
0S
0\
#1401
b00000000000000000000000000010001 &
1S
b00000000000000000000000000010000 H
1\
#1406
0S
0\
#1411
b00000000000000000000000000010010 &
1S
b00000000000000000000000000010001 H
1\
#1416
0S
0\
#1421
b00000000000000000000000000010011 &
1S
b00000000000000000000000000010010 H
1\
#1426
0S
0\
#1431
b00000000000000000000000000000000 &
15
b11 k
1S
b00000000000000000000000000010011 H
1\
#1436
0S
0\
#1441
b1110 %
b1111111 4
b0001 g
b0001 v
b00000000000000000000000000000001 &
05
b1100110 Y
1S
b11 =
b0011001 7
b0001 b
1\
b00000000000000000000000000000000 H
b0011001 "#
#1446
0S
0\
#1451
b00000000000000000000000000000010 &
1S
b00000000000000000000000000000001 H
1\
#1456
0S
0\
#1461
b00000000000000000000000000000011 &
1S
b00000000000000000000000000000010 H
1\
#1466
0S
0\
#1471
b00000000000000000000000000000100 &
1S
b00000000000000000000000000000011 H
1\
#1476
0S
0\
#1481
b00000000000000000000000000000101 &
1S
b00000000000000000000000000000100 H
1\
#1486
0S
0\
#1491
b00000000000000000000000000000110 &
1S
b00000000000000000000000000000101 H
1\
#1496
0S
0\
#1501
b00000000000000000000000000000111 &
1S
b00000000000000000000000000000110 H
1\
#1506
0S
0\
#1511
b00000000000000000000000000001000 &
1S
b00000000000000000000000000000111 H
1\
#1516
0S
0\
#1521
b00000000000000000000000000001001 &
1S
b00000000000000000000000000001000 H
1\
#1526
0S
0\
#1531
b00000000000000000000000000001010 &
1S
b00000000000000000000000000001001 H
1\
#1536
0S
0\
#1541
b00000000000000000000000000001011 &
1S
b00000000000000000000000000001010 H
1\
#1546
0S
0\
#1551
b00000000000000000000000000001100 &
1S
b00000000000000000000000000001011 H
1\
#1556
0S
0\
#1561
b00000000000000000000000000001101 &
1S
b00000000000000000000000000001100 H
1\
#1566
0S
0\
#1571
b00000000000000000000000000001110 &
1S
b00000000000000000000000000001101 H
1\
#1576
0S
0\
#1581
b00000000000000000000000000001111 &
1S
b00000000000000000000000000001110 H
1\
#1586
0S
0\
#1591
b00000000000000000000000000010000 &
1S
b00000000000000000000000000001111 H
1\
#1596
0S
0\
#1601
b00000000000000000000000000010001 &
1S
b00000000000000000000000000010000 H
1\
#1606
0S
0\
#1611
b00000000000000000000000000010010 &
1S
b00000000000000000000000000010001 H
1\
#1616
0S
0\
#1621
b00000000000000000000000000010011 &
1S
b00000000000000000000000000010010 H
1\
#1626
0S
0\
#1631
b00000000000000000000000000000000 &
15
b00 k
1S
b00000000000000000000000000010011 H
1\
#1636
0S
0\
#1641
b0111 %
b0000110 4
b0111 C
b0111 v
b1000 g
b0000110 R
b00000000000000000000000000000001 &
05
b0000110 Y
1S
b00 =
b1111001 7
b1000 b
1\
b0111 0
b0000110 r
b00000000000000000000000000000000 H
b1111001 "#
#1646
0S
0\
#1651
b00000000000000000000000000000010 &
1S
b00000000000000000000000000000001 H
1\
#1656
0S
0\
#1661
b00000000000000000000000000000011 &
1S
b00000000000000000000000000000010 H
1\
#1666
0S
0\
#1671
b00000000000000000000000000000100 &
1S
b00000000000000000000000000000011 H
1\
#1676
0S
0\
#1681
b00000000000000000000000000000101 &
1S
b00000000000000000000000000000100 H
1\
#1686
0S
0\
#1691
b00000000000000000000000000000110 &
1S
b00000000000000000000000000000101 H
1\
#1696
0S
0\
#1701
b00000000000000000000000000000111 &
1S
b00000000000000000000000000000110 H
1\
#1706
0S
0\
#1711
b00000000000000000000000000001000 &
1S
b00000000000000000000000000000111 H
1\
#1716
0S
0\
#1721
b00000000000000000000000000001001 &
1S
b00000000000000000000000000001000 H
1\
#1726
0S
0\
#1731
b00000000000000000000000000001010 &
1S
b00000000000000000000000000001001 H
1\
#1736
0S
0\
#1741
b00000000000000000000000000001011 &
1S
b00000000000000000000000000001010 H
1\
#1746
0S
0\
#1751
b00000000000000000000000000001100 &
1S
b00000000000000000000000000001011 H
1\
#1756
0S
0\
#1761
b00000000000000000000000000001101 &
1S
b00000000000000000000000000001100 H
1\
#1766
0S
0\
#1771
b00000000000000000000000000001110 &
1S
b00000000000000000000000000001101 H
1\
#1776
0S
0\
#1781
b00000000000000000000000000001111 &
1S
b00000000000000000000000000001110 H
1\
#1786
0S
0\
#1791
b00000000000000000000000000010000 &
1S
b00000000000000000000000000001111 H
1\
#1796
0S
0\
#1801
b00000000000000000000000000010001 &
1S
b00000000000000000000000000010000 H
1\
#1806
0S
0\
#1811
b00000000000000000000000000010010 &
1S
b00000000000000000000000000010001 H
1\
#1816
0S
0\
#1821
b00000000000000000000000000010011 &
1S
b00000000000000000000000000010010 H
1\
#1826
0S
0\
#1831
b00000000000000000000000000000000 &
15
b01 k
1S
b00000000000000000000000000010011 H
1\
#1836
0S
0\
#1841
b1011 %
b1011011 4
b1011 C
b1011 v
b0100 g
b1111111 R
b00000000000000000000000000000001 &
05
b1011011 Y
1S
b01 =
b0100100 7
b0100 b
1\
b0001 0
b1011011 r
b00000000000000000000000000000000 H
b0100100 "#
#1846
0S
0\
#1851
b00000000000000000000000000000010 &
1S
b00000000000000000000000000000001 H
1\
#1856
0S
0\
#1861
b00000000000000000000000000000011 &
1S
b00000000000000000000000000000010 H
1\
#1866
0S
0\
#1871
b00000000000000000000000000000100 &
1S
b00000000000000000000000000000011 H
1\
#1876
0S
0\
#1881
b00000000000000000000000000000101 &
1S
b00000000000000000000000000000100 H
1\
#1886
0S
0\
#1891
b00000000000000000000000000000110 &
1S
b00000000000000000000000000000101 H
1\
#1896
0S
0\
#1901
b00000000000000000000000000000111 &
1S
b00000000000000000000000000000110 H
1\
#1906
0S
0\
#1911
b00000000000000000000000000001000 &
1S
b00000000000000000000000000000111 H
1\
#1916
0S
0\
#1921
b00000000000000000000000000001001 &
1S
b00000000000000000000000000001000 H
1\
#1926
0S
0\
#1931
b00000000000000000000000000001010 &
1S
b00000000000000000000000000001001 H
1\
#1936
0S
0\
#1941
b00000000000000000000000000001011 &
1S
b00000000000000000000000000001010 H
1\
#1946
0S
0\
#1951
b00000000000000000000000000001100 &
1S
b00000000000000000000000000001011 H
1\
#1956
0S
0\
#1961
b00000000000000000000000000001101 &
1S
b00000000000000000000000000001100 H
1\
#1966
0S
0\
#1971
b00000000000000000000000000001110 &
1S
b00000000000000000000000000001101 H
1\
#1976
0S
0\
#1981
b00000000000000000000000000001111 &
1S
b00000000000000000000000000001110 H
1\
#1986
0S
0\
#1991
b00000000000000000000000000010000 &
1S
b00000000000000000000000000001111 H
1\
#1996
0S
0\
#2001
b00000000000000000000000000010001 &
1S
b00000000000000000000000000010000 H
1\
#2006
0S
0\
#2011
b00000000000000000000000000010010 &
1S
b00000000000000000000000000010001 H
1\
#2016
0S
0\
#2021
b00000000000000000000000000010011 &
1S
b00000000000000000000000000010010 H
1\
#2026
0S
0\
#2031
b00000000000000000000000000000000 &
15
b10 k
1S
b00000000000000000000000000010011 H
1\
#2036
0S
0\
#2041
b1101 %
b1001111 4
b0001 C
b1101 v
b0010 g
b00000000000000000000000000000001 &
05
b1001111 Y
1S
b10 =
b0110000 7
b0010 b
1\
b1111111 r
b00000000000000000000000000000000 H
b0110000 "#
